[Activity]New Client(2016-04-13 00:55:54.0: Added a new client - [Client:ew]dw ew-ew.).
[Activity]New Client(2016-04-13 00:56:18.0: Added a new client - [Client:29423454672345]dada dada-12.).
[Activity]Delete Client(2016-04-13 08:59:33.0: Deleted a client - [Client:1234354567845]calin iordache-122.).
[Activity]New Client(2016-04-13 09:00:34.0: Added a new client - [Client:1920912114051]calin iordache-badon.).
[Activity]New Client(2016-04-13 11:26:35.0: Added a new client - [Client:1890228335503]carla duda-uus.).
[Activity]Money Transfer(2016-04-13 11:28:28.0: Money Transfer - [Account4532033182702837]Client ID:[Client:1920912114051]calin iordache-badon..(init:236.0; now:223.0) to [Account4716741494058536]Client ID:[Client:2940103314004]Sfat Lorena-Badon, 119..(init:134.0; now:147.0)).
[Activity]Update Client(2016-04-13 13:27:50.0: Updated a client - [Client:1891219094614]ada ada-uk.).
[Activity]Update Account(2016-04-13 13:32:21.0: Updated an account - [Account4532033182702837]Client ID:[Client:1920912114051]calin iordache-badon..).
[Activity]Update Account(2016-04-13 13:32:52.0: Updated an account - [Account4532033182702837]Client ID:[Client:1920912114051]calin iordache-badon..).
[Activity]Money Transfer(2016-04-13 13:46:56.0: Money Transfer - [Account4532033182702837]Client ID:[Client:1920912114051]calin iordache-badon..(init:321.0; now:355.0) to [Account4716741494058536]Client ID:[Client:2940103314004]Sfat Lorena-Badon, 119..(init:147.0; now:113.0)).
[Activity]Update Client(2016-04-13 13:49:46.0: Updated a client - [Client:2890729186291]ana maria-HERE.).
[Activity]New Client(2016-04-13 13:51:31.0: Added a new client - [Client:1891020218093]Marcel Pop-ialomita.).
[Activity]Delete Client(2016-04-13 13:52:03.0: Deleted a client - [Client:1891020218093]Marcel Pop-ialomita.).
[Activity]Update Client(2016-04-13 13:52:43.0: Updated a client - [Client:2940103314004]Sfat Lorena Adina-Badon, 119.).
[Activity]New Account(2016-04-13 13:55:14.0: Added a new account-[Account1234568743323456]Client ID:[Client:1890228335503]carla duda-uus..).
[Activity]Delete Account(2016-04-13 13:55:41.0: Deleted an account - [Account1234568743323456]Client ID:[Client:1890228335503]carla duda-uus..).
[Activity]Update Account(2016-04-13 13:56:55.0: Updated an account - [Account4716741494058536]Client ID:[Client:2940103314004]Sfat Lorena Adina-Badon, 119..).
